{
	"Employees": {

		"Index": [
			"John Doe",
			"Michael Scott",
			"John Mastodon",
			"Luci",
			"You :3"
		],
		"John Doe": {
			"id": 12,
			"Role": "Customer Care",
			"Clearance": 2,
			"Cute": false
		},
		"Michael Scott": {
			"id": 13,
			"Role": "Regional Sales Manager (Scranton)",
			"Clearance": 4,
			"Cute": false
		},
		"John Mastodon": {
			"id": 3,
			"Role": "Literally Mastodon",
			"Clearance": 16,
			"Cute": false
		},
		"Luci": {
			"id": 2,
			"Role": "Glorious Leader of ZE WORLD!!!!!!",
			"Clearance": 16,
			"Cute": false
		},
		"You :3": {
			"id": 1,
			"Role": "Professional Cutie",
			"Clearance": 16,
			"Cute": true
		}
	},

	"Enemies": {
		"Index": [
			"Crazy Frog",
			"Stuart Little"
		],
		"Crazy Frog": {
			"Reasons": [
				"Most annoying thing in the world"
			]
		},
		"Stuart Little": {
			"Reasons": [
				"Little entitled [rat] took a loving home from a foster kid",
				"Hes literally a rat",
				"[I hate] that little [rat]",
				"I hope he gets run over"
			]
		}
	}
}